{
	"info": {
		"_postman_id": "9580ae97-600b-4295-b6e4-499a780a47a9",
		"name": "Sprint 6 - US007CreateGroupAccountControllerREST.postman_collection",
		"schema": "https://schema.getpostman.com/json/collection/v2.1.0/collection.json"
	},
	"item": [
		{
			"name": "createGroupAccount_Success",
			"event": [
				{
					"listen": "test",
					"script": {
						"id": "10c420ac-dfb8-4bb9-8059-88486041c8d5",
						"exec": [
							"    //Response Schema",
							"",
							"const schema = {",
							"    \"type\": \"object\",",
							"    ",
							"    \"properties\": {",
							"        ",
							"        \"denomination\": { \"type\" : \"string\"},",
							"        \"description\": { \"type\" : \"string\"},",
							"        \"dateOfCreation\": { \"type\" : \"string\"},",
							"        ",
							"        \"_links\":{",
							"            \"type\": \"object\",",
							"            ",
							"            \"properties\": {",
							"                \"admins\": {",
							"                    \"type\": \"object\",",
							"                    \"properties\": {",
							"                        \"href\": {\"type\": \"string\"},",
							"                    },",
							"                    \"required\": [\"href\"]",
							"                    ",
							"                },",
							"                \"members\": {",
							"                    \"type\": \"object\",",
							"                    \"properties\": {",
							"                        \"href\": {\"type\": \"string\"},",
							"                    },",
							"                    \"required\": [\"href\"]",
							"                    ",
							"                },",
							"                \"ledger\": {",
							"                    \"type\": \"object\",",
							"                    \"properties\": {",
							"                        \"href\": {\"type\": \"string\"},",
							"                    },",
							"                    \"required\": [\"href\"]",
							"                    ",
							"                },",
							"                \"accounts\": {",
							"                    \"type\": \"object\",",
							"                     \"properties\": {",
							"                        \"href\": {\"type\": \"string\"},",
							"                    },",
							"                    \"required\": [\"href\"]",
							"                    ",
							"                },",
							"                \"categories\": {",
							"                    \"type\": \"object\",",
							"                    \"properties\": {",
							"                        \"href\": {\"type\": \"string\"},",
							"                    },",
							"                    \"required\": [\"href\"]",
							"                    ",
							"                }",
							"            },",
							"            ",
							"            \"required\": [\"admins\", \"members\", \"ledger\", \"accounts\", \"categories\"] }",
							"            ",
							"    }, \"required\": [\"denomination\", \"_links\"]",
							"};",
							"",
							"    //Test Response Schema ",
							"",
							"pm.test('Schema is valid', () => {",
							"    ",
							"  pm.response.to.have.jsonSchema(schema);",
							"  ",
							"});",
							"",
							"",
							"    //Test Response Body",
							"",
							"pm.test(\"Response Body\", () => {",
							"    ",
							"  const moment = require('moment')",
							"  let dateNow = moment().format(\"YYYY-MM-DD\")",
							"  ",
							"  var jsonData = pm.response.json();",
							"  ",
							"  pm.expect(jsonData.denomination).to.eql(\"Fontes Family\");",
							"  pm.expect(jsonData.description).to.eql(\"All members from Fontes family\");",
							"  pm.expect(jsonData.dateOfCreation).to.eql(dateNow);",
							"  ",
							"});",
							""
						],
						"type": "text/javascript"
					}
				}
			],
			"request": {
				"method": "POST",
				"header": [],
				"body": {
					"mode": "raw",
					"raw": "{\n\t\"accountDenomination\" : \"LakersAccount\",\n\t\"accountDescription\" : \"Lakers Expenses\"\n}",
					"options": {
						"raw": {
							"language": "json"
						}
					}
				},
				"url": {
					"raw": "localhost:8080/persons/manuel@gmail.com/groups/Fontes%20Family/accounts",
					"host": [
						"localhost"
					],
					"port": "8080",
					"path": [
						"persons",
						"manuel@gmail.com",
						"groups",
						"Fontes%20Family",
						"accounts"
					]
				}
			},
			"response": []
		},
		{
			"name": "createGroupAccount_PersonNotInCharge",
			"event": [
				{
					"listen": "test",
					"script": {
						"id": "dd5cb84a-9eb5-4c2a-8ff8-1be54c701ab6",
						"exec": [
							"    //Response Schema",
							"    ",
							"const schema = {",
							"    ",
							"    \"type\": \"object\",",
							"    ",
							"    \"properties\": {",
							"        ",
							"        \"status\": { \"type\": \"string\" },",
							"        ",
							"        \"message\": { \"type\": \"string\" },",
							"        ",
							"        \"errors\": {",
							"            \"type\": \"array\",",
							"            \"minItems\": 1,",
							"            \"maxItems\": 1,",
							"            \"items\": {",
							"                \"type\": \"string\"",
							"            }",
							"        ",
							"    }}, \"required\": [\"status\", \"message\", \"errors\"]",
							"};",
							"",
							"    //Test Response Schema ",
							"",
							"pm.test(\"Validate schema\", () => {",
							"    ",
							"    pm.response.to.have.jsonSchema(schema);",
							"    ",
							"});",
							"",
							"",
							"    //Test Response Body",
							"",
							"pm.test(\"Response Body\", function () {",
							"    ",
							"    var jsonData = pm.response.json();",
							"    ",
							"    pm.expect(jsonData.status).to.eql(\"UNPROCESSABLE_ENTITY\");",
							"    pm.expect(jsonData.message).to.eql(\"Person is not in charge\");",
							"    pm.expect(jsonData.errors[0]).to.eql(\"Status Code: 422, Exception: InvalidArgumentsBusinessException\");",
							"    ",
							"});"
						],
						"type": "text/javascript"
					}
				}
			],
			"request": {
				"method": "POST",
				"header": [],
				"body": {
					"mode": "raw",
					"raw": "{\n\t\t\"personEmail\" : \"lebron@gmail.com\",\n        \"groupDenomination\" : \"Fontes Family\",\n        \"accountDenomination\" : \"LakersAccount\",\n        \"accountDescription\" : \"Lakers Expenses\"\n}",
					"options": {
						"raw": {
							"language": "json"
						}
					}
				},
				"url": {
					"raw": "localhost:8080/persons/paulo@gmail.com/groups/Fontes%20Family/accounts",
					"host": [
						"localhost"
					],
					"port": "8080",
					"path": [
						"persons",
						"paulo@gmail.com",
						"groups",
						"Fontes%20Family",
						"accounts"
					]
				}
			},
			"response": []
		},
		{
			"name": "createGroupAccount_AccountAlreadyExists",
			"event": [
				{
					"listen": "test",
					"script": {
						"id": "5ad410f8-401f-415d-927c-8e5a39505e78",
						"exec": [
							"    //Response Schema",
							"    ",
							"const schema = {",
							"    ",
							"    \"type\": \"object\",",
							"    ",
							"    \"properties\": {",
							"        ",
							"        \"status\": { \"type\": \"string\" },",
							"        ",
							"        \"message\": { \"type\": \"string\" },",
							"        ",
							"        \"errors\": {",
							"            \"type\": \"array\",",
							"            \"minItems\": 1,",
							"            \"maxItems\": 1,",
							"            \"items\": {",
							"                \"type\": \"string\"",
							"            }",
							"        ",
							"    }}, \"required\": [\"status\", \"message\", \"errors\"]",
							"};",
							"",
							"    //Test Response Schema ",
							"",
							"pm.test(\"Validate schema\", () => {",
							"    ",
							"    pm.response.to.have.jsonSchema(schema);",
							"    ",
							"});",
							"",
							"",
							"    //Test Response Body",
							"",
							"pm.test(\"Response Body\", function () {",
							"    ",
							"    var jsonData = pm.response.json();",
							"    ",
							"    pm.expect(jsonData.status).to.eql(\"UNPROCESSABLE_ENTITY\");",
							"    pm.expect(jsonData.message).to.eql(\"Account already exists\");",
							"    pm.expect(jsonData.errors[0]).to.eql(\"Status Code: 422, Exception: InvalidArgumentsBusinessException\");",
							"    ",
							"});"
						],
						"type": "text/javascript"
					}
				}
			],
			"request": {
				"method": "POST",
				"header": [],
				"body": {
					"mode": "raw",
					"raw": "{\n\t\"accountDenomination\" : \"Company\",\n\t\"accountDescription\" : \"Company Expenses\"\n}",
					"options": {
						"raw": {
							"language": "json"
						}
					}
				},
				"url": {
					"raw": "localhost:8080/persons/manuel@gmail.com/groups/Fontes%20Family/accounts",
					"host": [
						"localhost"
					],
					"port": "8080",
					"path": [
						"persons",
						"manuel@gmail.com",
						"groups",
						"Fontes%20Family",
						"accounts"
					]
				}
			},
			"response": []
		},
		{
			"name": "createGroupAccount_GroupDoesNotExists",
			"event": [
				{
					"listen": "test",
					"script": {
						"id": "bb9018de-33aa-4656-b05a-80fdb979341d",
						"exec": [
							"    //Response Schema",
							"",
							"const schema = {",
							"    ",
							"    \"type\": \"object\",",
							"    ",
							"    \"properties\": {",
							"        ",
							"        \"status\": { \"type\": \"string\" },",
							"        ",
							"        \"message\": { \"type\": \"string\" },",
							"        ",
							"        \"errors\": {",
							"            \"type\": \"array\",",
							"            \"minItems\": 1,",
							"            \"maxItems\": 1,",
							"            \"items\": {",
							"                \"type\": \"string\"",
							"            }",
							"        ",
							"    }}, \"required\": [\"status\", \"message\", \"errors\"]",
							"};",
							"",
							"    //Test Response Schema ",
							"",
							"pm.test(\"Validate schema\", () => {",
							"    ",
							"    pm.response.to.have.jsonSchema(schema);",
							"    ",
							"});",
							"",
							"",
							"    //Test Response Body",
							"",
							"pm.test(\"Response Body\", function () {",
							"    ",
							"    var jsonData = pm.response.json();",
							"    ",
							"    pm.expect(jsonData.status).to.eql(\"NOT_FOUND\");",
							"    pm.expect(jsonData.message).to.eql(\"Group does not exist\");",
							"    pm.expect(jsonData.errors[0]).to.eql(\"Status Code: 404, Exception: NotFoundArgumentsBusinessException\");",
							"    ",
							"});"
						],
						"type": "text/javascript"
					}
				}
			],
			"request": {
				"method": "POST",
				"header": [],
				"body": {
					"mode": "raw",
					"raw": "{\n\t\"accountDenomination\" : \"LakersAccount\",\n\t\"accountDescription\" : \"Lakers Expenses\"\n}",
					"options": {
						"raw": {
							"language": "json"
						}
					}
				},
				"url": {
					"raw": "localhost:8080/persons/manuel@gmail.com/groups/Santos%20Family/accounts",
					"host": [
						"localhost"
					],
					"port": "8080",
					"path": [
						"persons",
						"manuel@gmail.com",
						"groups",
						"Santos%20Family",
						"accounts"
					]
				}
			},
			"response": []
		}
	],
	"event": [
		{
			"listen": "prerequest",
			"script": {
				"id": "577a4b64-e38f-476f-b7c6-827824ed03f1",
				"type": "text/javascript",
				"exec": [
					""
				]
			}
		},
		{
			"listen": "test",
			"script": {
				"id": "1fc5e6d2-5492-45c6-9a24-f1717900ddd7",
				"type": "text/javascript",
				"exec": [
					""
				]
			}
		}
	],
	"protocolProfileBehavior": {}
}