@startuml
!define LIGHTBLUE
!includeurl https://raw.githubusercontent.com/Drakemor/RedDress-PlantUML/master/style.puml

hide footbox
participant ":testController_US_07"

create "controller_us_07 : Controller_US_07"
activate ":testController_US_07" #34b7eb
":testController_US_07" [#blue]-->  "controller_us_07 : Controller_US_07" : new Controller_US_07()


":testController_US_07" [#blue]-> "controller_us_07 : Controller_US_07": createGroupAccountAsPersonInCharge(groupRepo, accountRepo,\n email, groupDenomination, accountDenomination)
activate "controller_us_07 : Controller_US_07" #34b7eb

create "service_US_07 : Service_US_07"
"controller_us_07 : Controller_US_07" [#blue]-->  "service_US_07 : Service_US_07" : new Service_US_07()
"controller_us_07 : Controller_US_07" [#blue]->  "service_US_07 : Service_US_07" : createGroupAccountAsPersonInCharge(groupRepo, accountRepo,\n email, groupDenomination, accountDenomination)



participant "GroupID"

activate "service_US_07 : Service_US_07" #34b7eb
"service_US_07 : Service_US_07" [#blue]->  "GroupID" : createGroupID(groupDenomination)
activate "GroupID" #34b7eb
create "groupID : GroupID"
"GroupID" [#blue]-->  "groupID : GroupID" : new GroupID(groupDenomination)
return <b>groupID</b>
deactivate "groupID : GroupID"

"service_US_07 : Service_US_07" [#blue]->  "AccountID" : createAccountIDGroup(accountDenomination, groupID)
activate "AccountID" #34b7eb
create "accountID : AccountID"
"AccountID" [#blue]-->  "accountID : AccountID" : new AccountID(groupDenomination)
return <b>accountID</b>
deactivate "accountID : AccountID"

"service_US_07 : Service_US_07" [#blue]->  "PersonID" : createPersonID(email)
activate "PersonID" #34b7eb
create "personID : PersonID"
"PersonID" [#blue]-->  "personID : PersonID" : new PersonID(groupDenomination)
return <b>personID</b>
deactivate "personID : PersonID"

participant "groupRepo : GroupRepository"
participant "group : Group"

"service_US_07 : Service_US_07" [#blue]-> "groupRepo : GroupRepository" : findGroupByID(groupID)
activate "groupRepo : GroupRepository" #34b7eb
return Group <b>group</b>
deactivate "groupRepo : GroupRepository"

participant "accountRepo : AccountRepository"

"service_US_07 : Service_US_07" [#blue]-> "accountRepo : AccountRepository" : existAccount(accountID)
activate "accountRepo : AccountRepository" #34b7eb
return boolean <b>accountExists</b>

"service_US_07 : Service_US_07" [#blue]-> "group : Group" :  isPersonInCharge(personID)
activate "group : Group" #34b7eb
return boolean <b>isPersonInCharge</b>

"service_US_07 : Service_US_07" [#blue]-> "group : Group" : checkIfGroupHasAccount(accountID)
activate "group : Group" #34b7eb
return boolean <b>groupHasAccount</b>

alt (!accountExists && isPersonInCharge && !groupHasAccount) == true

"service_US_07 : Service_US_07" [#blue]->  "Account" : createPersonID(email)
activate "Account" #34b7eb
create "account : Account"
"Account" [#blue]-->  "account : Account" : new Account(accountDenomination, groupID)
return <b>account</b>
deactivate "account : Account"

"service_US_07 : Service_US_07" [#blue]-> "accountRepo : AccountRepository" : saveAccount(account)
activate "accountRepo : AccountRepository" #34b7eb
return boolean <b>saveResult</b>

"service_US_07 : Service_US_07" [#blue]-> "group : Group" : addAccount(accountID)
activate "group : Group" #34b7eb
return boolean <b>addResult</b>

"controller_us_07 : Controller_US_07" <-- "service_US_07 : Service_US_07": boolean <b>result</b> = true



else else

"controller_us_07 : Controller_US_07" <-- "service_US_07 : Service_US_07": boolean <b>result</b> = false
deactivate "service_US_07 : Service_US_07"


end

":testController_US_07" <-- "controller_us_07 : Controller_US_07": boolean <b>result</b>
deactivate "controller_us_07 : Controller_US_07"


":testController_US_07" [#blue]-> ":testController_US_07": assertEquals(true, result)
":testController_US_07" [#blue]-> ":testController_US_07": assertEquals(true, accountRepo.existsAccount(accountID))
":testController_US_07" [#blue]-> ":testController_US_07": assertEquals(true, group.checkIfGroupHasAccount(accountID))

@enduml