@startuml

scale 1.35

'__Layout
skinparam class {
BackgroundColor #F2F2F2
ArrowColor #404040
BorderColor #7F7F7F
}

skinparam classAttributeIconSize 0

left to right direction

'__Title
title <b>"Personal Finance Management"</b>\nDesign Class Diagram US_01

'__Design classes

class Controller_US01 {
+ checkIfBrother()
}

class Service_US01 {
+ checkIfSiblings()
}

interface IPersonRepository {
}

class PersonRepository {
- personRepo : List <Person>

+ getPersonByID()
(...)
}

package AggregatePerson <<Folder>>{
class Person {
- Siblings : List <Person>
+ verifySiblingsOrHalfSiblings()
(...)
}
}

'__Associations
'__Dependency relationships

Controller_US01 ..> Service_US01
Service_US01..> IPersonRepository
IPersonRepository <.. PersonRepository
PersonRepository "1" *--> "1..*" Person

@enduml