{
	"info": {
		"_postman_id": "655dfe31-dc97-4c84-9065-48c9913d43d5",
		"name": "Sprint 7 - US003AddPersonToGroup",
		"schema": "https://schema.getpostman.com/json/collection/v2.1.0/collection.json"
	},
	"item": [
		{
			"name": "AddPersonToGroup_SucessCase (201 -> CREATED)",
			"event": [
				{
					"listen": "test",
					"script": {
						"id": "8e09faa0-b456-4795-9fda-d5fcc55a9cf3",
						"exec": [
							"    //Response Schema",
							"",
							"const schema = {",
							"    \"type\": \"object\",",
							"    ",
							"    \"properties\": {",
							"        ",
							"        \"denomination\": { \"type\" : \"string\"},",
							"        \"desciption\": { \"type\" : \"string\"},",
							"        \"dateOfCreation\": { \"type\" : \"string\"},",
							"        ",
							"        \"_links\":{",
							"            \"type\": \"object\",",
							"            ",
							"            \"properties\": {",
							"                \"admins\": {",
							"                    \"type\": \"object\",",
							"                    \"properties\": {",
							"                        \"href\": {\"type\": \"string\"},",
							"                    },",
							"                    \"required\": [\"href\"]",
							"                    ",
							"                },",
							"                \"members\": {",
							"                    \"type\": \"object\",",
							"                    \"properties\": {",
							"                        \"href\": {\"type\": \"string\"},",
							"                    },",
							"                    \"required\": [\"href\"]",
							"                    ",
							"                },",
							"                \"ledger\": {",
							"                    \"type\": \"object\",",
							"                    \"properties\": {",
							"                        \"href\": {\"type\": \"string\"},",
							"                    },",
							"                    \"required\": [\"href\"]",
							"                    ",
							"                },",
							"                \"accounts\": {",
							"                    \"type\": \"object\",",
							"                     \"properties\": {",
							"                        \"href\": {\"type\": \"string\"},",
							"                    },",
							"                    \"required\": [\"href\"]",
							"                    ",
							"                },",
							"                \"categories\": {",
							"                    \"type\": \"object\",",
							"                    \"properties\": {",
							"                        \"href\": {\"type\": \"string\"},",
							"                    },",
							"                    \"required\": [\"href\"]",
							"                    ",
							"                }",
							"            },",
							"            ",
							"            \"required\": [\"admins\", \"members\", \"ledger\", \"accounts\", \"categories\"] }",
							"            ",
							"    }, \"required\": [\"denomination\", \"_links\"]",
							"};",
							"",
							"    //Test Response Schema ",
							"",
							"pm.test('Schema is valid', () => {",
							"    ",
							"  pm.response.to.have.jsonSchema(schema);",
							"  ",
							"});",
							"",
							"",
							"    //Test Response Body",
							"",
							"pm.test(\"Response Body\", () => {",
							"    ",
							"  const moment = require('moment')",
							"  let dateNow = moment().format(\"YYYY-MM-DD\")",
							"  ",
							"  var jsonData = pm.response.json();",
							"  ",
							"  pm.expect(jsonData.denomination).to.eql(\"Sunday Runners\");",
							"  pm.expect(jsonData.description).to.eql(\"All members from Sunday Runners group\");",
							"  pm.expect(jsonData.dateOfCreation).to.eql(dateNow);",
							"  ",
							"});"
						],
						"type": "text/javascript"
					}
				}
			],
			"request": {
				"method": "POST",
				"header": [],
				"body": {
					"mode": "raw",
					"raw": "{\n\t\"email\" : \"joao@gmail.com\"\n}",
					"options": {
						"raw": {
							"language": "json"
						}
					}
				},
				"url": {
					"raw": "http://localhost:8080/groups/Sunday Runners/members",
					"protocol": "http",
					"host": [
						"localhost"
					],
					"port": "8080",
					"path": [
						"groups",
						"Sunday Runners",
						"members"
					]
				}
			},
			"response": []
		},
		{
			"name": "AddPersonToGroup_GroupDoesNotExist (404 -> NOT_FOUND)",
			"event": [
				{
					"listen": "test",
					"script": {
						"id": "f03be2f9-d5b2-4ad5-8057-c10073b27072",
						"exec": [
							"    //Response Schema",
							"    ",
							"const schema = {",
							"    ",
							"    \"type\": \"object\",",
							"    ",
							"    \"properties\": {",
							"        ",
							"        \"status\": { \"type\": \"string\" },",
							"        ",
							"        \"message\": { \"type\": \"string\" },",
							"        ",
							"        \"errors\": {",
							"            \"type\": \"array\",",
							"            \"minItems\": 1,",
							"            \"maxItems\": 1,",
							"            \"items\": {",
							"                \"type\": \"string\"",
							"            }",
							"        ",
							"    }}, \"required\": [\"status\", \"message\", \"errors\"]",
							"};",
							"",
							"    //Test Response Schema ",
							"",
							"pm.test(\"Validate schema\", () => {",
							"    ",
							"    pm.response.to.have.jsonSchema(schema);",
							"    ",
							"});",
							"",
							"",
							"    //Test Response Body",
							"",
							"pm.test(\"Response Body\", function () {",
							"    ",
							"    var jsonData = pm.response.json();",
							"    ",
							"    pm.expect(jsonData.status).to.eql(\"UNPROCESSABLE_ENTITY\");",
							"    pm.expect(jsonData.message).to.eql(\"Person does not exist\");",
							"    pm.expect(jsonData.errors[0]).to.eql(\"Status Code: 422, Exception: InvalidArgumentsBusinessException\");",
							"    ",
							"});"
						],
						"type": "text/javascript"
					}
				}
			],
			"request": {
				"method": "POST",
				"header": [],
				"body": {
					"mode": "raw",
					"raw": "{\n\t\"email\" : \"crispim@gmail.com\"\n}",
					"options": {
						"raw": {
							"language": "json"
						}
					}
				},
				"url": {
					"raw": "http://localhost:8080/groups/Sunday Runners/members",
					"protocol": "http",
					"host": [
						"localhost"
					],
					"port": "8080",
					"path": [
						"groups",
						"Sunday Runners",
						"members"
					]
				}
			},
			"response": []
		},
		{
			"name": "AddPersonToGroup_PersonDoesNotExist (404 -> NOT_FOUND)",
			"event": [
				{
					"listen": "test",
					"script": {
						"id": "0d971f18-b1ad-4293-9251-7730aded3db1",
						"exec": [
							"    //Response Schema",
							"",
							"const schema = {",
							"    ",
							"    \"type\": \"object\",",
							"    ",
							"    \"properties\": {",
							"        ",
							"        \"status\": { \"type\": \"string\" },",
							"        ",
							"        \"message\": { \"type\": \"string\" },",
							"        ",
							"        \"errors\": {",
							"            \"type\": \"array\",",
							"            \"minItems\": 1,",
							"            \"maxItems\": 1,",
							"            \"items\": {",
							"                \"type\": \"string\"",
							"            }",
							"        ",
							"    }}, \"required\": [\"status\", \"message\", \"errors\"]",
							"};",
							"",
							"    //Test Response Schema ",
							"",
							"pm.test(\"Validate schema\", () => {",
							"    ",
							"    pm.response.to.have.jsonSchema(schema);",
							"    ",
							"});",
							"",
							"",
							"    //Test Response Body",
							"",
							"pm.test(\"Response Body\", function () {",
							"    ",
							"    var jsonData = pm.response.json();",
							"    ",
							"    pm.expect(jsonData.status).to.eql(\"NOT_FOUND\");",
							"    pm.expect(jsonData.message).to.eql(\"Group does not exist\");",
							"    pm.expect(jsonData.errors[0]).to.eql(\"Status Code: 404, Exception: NotFoundArgumentsBusinessException\");",
							"    ",
							"});"
						],
						"type": "text/javascript"
					}
				}
			],
			"request": {
				"method": "POST",
				"header": [],
				"body": {
					"mode": "raw",
					"raw": "{\n\t\"email\": \"ilda@gmail.com\"\n}",
					"options": {
						"raw": {
							"language": "json"
						}
					}
				},
				"url": {
					"raw": "http://localhost:8080/groups/Sunday/members",
					"protocol": "http",
					"host": [
						"localhost"
					],
					"port": "8080",
					"path": [
						"groups",
						"Sunday",
						"members"
					]
				}
			},
			"response": []
		},
		{
			"name": "AddPersonToGroup_PersonIsAlreadyAMember  (422 -> UNPROCESSABLE_ENTITY)",
			"event": [
				{
					"listen": "test",
					"script": {
						"id": "a1884108-5b44-47fb-a1aa-214f800c80e7",
						"exec": [
							"  //Response Schema",
							"    ",
							"const schema = {",
							"    ",
							"    \"type\": \"object\",",
							"    ",
							"    \"properties\": {",
							"        ",
							"        \"status\": { \"type\": \"string\" },",
							"        ",
							"        \"message\": { \"type\": \"string\" },",
							"        ",
							"        \"errors\": {",
							"            \"type\": \"array\",",
							"            \"minItems\": 1,",
							"            \"maxItems\": 1,",
							"            \"items\": {",
							"                \"type\": \"string\"",
							"            }",
							"        ",
							"    }}, \"required\": [\"status\", \"message\", \"errors\"]",
							"};",
							"",
							"    //Test Response Schema ",
							"",
							"pm.test(\"Validate schema\", () => {",
							"    ",
							"    pm.response.to.have.jsonSchema(schema);",
							"    ",
							"});",
							"",
							"",
							"    //Test Response Body",
							"",
							"pm.test(\"Response Body\", function () {",
							"    ",
							"    var jsonData = pm.response.json();",
							"    ",
							"    pm.expect(jsonData.status).to.eql(\"UNPROCESSABLE_ENTITY\");",
							"    pm.expect(jsonData.message).to.eql(\"Person is already member\");",
							"    pm.expect(jsonData.errors[0]).to.eql(\"Status Code: 422, Exception: InvalidArgumentsBusinessException\");",
							"    ",
							"});"
						],
						"type": "text/javascript"
					}
				}
			],
			"request": {
				"method": "POST",
				"header": [],
				"body": {
					"mode": "raw",
					"raw": "{\n\"email\": \"paulo@gmail.com\"\n}",
					"options": {
						"raw": {
							"language": "json"
						}
					}
				},
				"url": {
					"raw": "http://localhost:8080/groups/Sunday Runners/members",
					"protocol": "http",
					"host": [
						"localhost"
					],
					"port": "8080",
					"path": [
						"groups",
						"Sunday Runners",
						"members"
					]
				}
			},
			"response": []
		},
		{
			"name": "AddPersonToGroup -> 405 METHOD NOT ALLOWED (PUT)",
			"event": [
				{
					"listen": "test",
					"script": {
						"id": "66983478-6ee9-46e2-9f2c-fcbb4eb6a86a",
						"exec": [
							"//Response Schema",
							"",
							"const schema = {",
							"    \"type\": \"object\",",
							"    \"properties\": {",
							"        \"status\": { \"type\": \"string\" },",
							"        \"message\": { \"type\": \"string\" },",
							"        \"errors\": {",
							"            \"type\": \"array\",",
							"            \"minItems\": 1,",
							"            \"maxItems\": 1,",
							"            \"items\": {",
							"                \"type\": \"string\"",
							"            }",
							"",
							"        }",
							"    }, \"required\": [\"status\", \"message\", \"errors\"]",
							"};",
							"",
							"",
							"//Test Response Schema ",
							"",
							"pm.test('Schema is valid', () => {",
							"",
							"    pm.response.to.have.jsonSchema(schema);",
							"",
							"});",
							"",
							"//Test Response Body",
							"",
							"pm.test(\"Response Body\", function () {",
							"    var jsonData = pm.response.json();",
							"    pm.expect(jsonData.status).to.eql(\"METHOD_NOT_ALLOWED\");",
							"    pm.expect(jsonData.message).to.eql(\"Request method 'PUT' not supported\");",
							"",
							"    pm.expect(jsonData.errors[0]).to.eql(\"PUT method is not supported for this request. Supported methods are GET POST \");",
							"});"
						],
						"type": "text/javascript"
					}
				}
			],
			"request": {
				"method": "PUT",
				"header": [],
				"body": {
					"mode": "raw",
					"raw": "{\n\t\"email\" : \"joao@gmail.com\"\n}",
					"options": {
						"raw": {
							"language": "json"
						}
					}
				},
				"url": {
					"raw": "http://localhost:8080/groups/Sunday Runners/members",
					"protocol": "http",
					"host": [
						"localhost"
					],
					"port": "8080",
					"path": [
						"groups",
						"Sunday Runners",
						"members"
					]
				}
			},
			"response": []
		},
		{
			"name": "AddPersonToGroup -> 400 BAD REQUEST (JSON)",
			"event": [
				{
					"listen": "test",
					"script": {
						"id": "46d8d886-3a18-4e93-9a74-af977ffa4977",
						"exec": [
							"//Response Schema",
							"",
							"const schema = {",
							"    \"type\": \"object\",",
							"    \"properties\": {",
							"        \"status\": { \"type\": \"string\" },",
							"        \"message\": { \"type\": \"string\" },",
							"        \"errors\": {",
							"            \"type\": \"array\",",
							"            \"minItems\": 1,",
							"            \"maxItems\": 1,",
							"            \"items\": {",
							"                \"type\": \"string\"",
							"            }",
							"",
							"        }",
							"    }, \"required\": [\"status\", \"message\", \"errors\"]",
							"};",
							"",
							"",
							"//Test Response Schema ",
							"",
							"pm.test('Schema is valid', () => {",
							"",
							"    pm.response.to.have.jsonSchema(schema);",
							"",
							"});",
							"",
							"//Test Response Body",
							"",
							"pm.test(\"Response Body\", function () {",
							"    var jsonData = pm.response.json();",
							"    pm.expect(jsonData.status).to.eql(\"BAD_REQUEST\");",
							"    pm.expect(jsonData.message).to.eql(\"Please verify the information sent.\");",
							"",
							"    pm.expect(jsonData.errors[0]).to.eql(\"Malformed JSON request - verify on line: 2, column: 17\");",
							"});"
						],
						"type": "text/javascript"
					}
				}
			],
			"request": {
				"method": "POST",
				"header": [],
				"body": {
					"mode": "raw",
					"raw": "{\n\t\"email\" : joao@gmail.com\n}",
					"options": {
						"raw": {
							"language": "json"
						}
					}
				},
				"url": {
					"raw": "http://localhost:8080/groups/Sunday Runners/members",
					"protocol": "http",
					"host": [
						"localhost"
					],
					"port": "8080",
					"path": [
						"groups",
						"Sunday Runners",
						"members"
					]
				}
			},
			"response": []
		},
		{
			"name": "AddPersonToGroup -> 415 UNSUPPORTED MEDIA TYPE (XML)",
			"event": [
				{
					"listen": "test",
					"script": {
						"id": "fce76d47-ca62-4c15-8a89-8f5eb75b02b4",
						"exec": [
							"//Response Schema",
							"",
							"const schema = {",
							"    \"type\": \"object\",",
							"    \"properties\": {",
							"        \"status\": { \"type\": \"string\" },",
							"        \"message\": { \"type\": \"string\" },",
							"        \"errors\": {",
							"            \"type\": \"array\",",
							"            \"minItems\": 1,",
							"            \"maxItems\": 1,",
							"            \"items\": {",
							"                \"type\": \"string\"",
							"            }",
							"",
							"        }",
							"    }, \"required\": [\"status\", \"message\", \"errors\"]",
							"};",
							"",
							"",
							"//Test Response Schema ",
							"",
							"pm.test('Schema is valid', () => {",
							"",
							"    pm.response.to.have.jsonSchema(schema);",
							"",
							"});",
							"",
							"//Test Response Body",
							"",
							"pm.test(\"Response Body\", function () {",
							"    var jsonData = pm.response.json();",
							"    pm.expect(jsonData.status).to.eql(\"UNSUPPORTED_MEDIA_TYPE\");",
							"    pm.expect(jsonData.message).to.eql(\"Content type 'application/xml;charset=UTF-8' not supported\");",
							"",
							"    pm.expect(jsonData.errors[0]).to.eql(\"application/xml;charset=UTF-8 media type is not supported. Supported media types are application/hal+json, application/json, application/octet-stream, application/xml, application/x-www-form-urlencoded, application/*+json, text/plain, text/xml, application/*+xml, multipart/form-data, multipart/mixed, */*\");",
							"});"
						],
						"type": "text/javascript"
					}
				}
			],
			"request": {
				"method": "POST",
				"header": [],
				"body": {
					"mode": "raw",
					"raw": "{\n\t\"email\" : \"joao@gmail.com\"\n}",
					"options": {
						"raw": {
							"language": "xml"
						}
					}
				},
				"url": {
					"raw": "http://localhost:8080/groups/Sunday Runners/members",
					"protocol": "http",
					"host": [
						"localhost"
					],
					"port": "8080",
					"path": [
						"groups",
						"Sunday Runners",
						"members"
					]
				}
			},
			"response": []
		},
		{
			"name": "AddPersonToGroup -> 404 NOT FOUND (group)",
			"event": [
				{
					"listen": "test",
					"script": {
						"id": "1b7a3bef-3377-43dd-b4ac-8188448a97cf",
						"exec": [
							"//Response Schema",
							"",
							"const schema = {",
							"    \"type\": \"object\",",
							"    \"properties\": {",
							"        \"timestamp\": { \"type\": \"string\" },",
							"        \"status\": { \"type\": \"number\" },",
							"        \"error\": { \"type\": \"string\" },",
							"        \"message\": { \"type\": \"string\" },",
							"        \"path\": { \"type\": \"string\" }",
							"",
							"    }, \"required\": [\"timestamp\", \"status\", \"error\", \"message\", \"path\"]",
							"};",
							"",
							"",
							"//Test Response Schema ",
							"",
							"pm.test('Schema is valid', () => {",
							"",
							"    pm.response.to.have.jsonSchema(schema);",
							"",
							"});",
							"",
							"//Test Response Body",
							"",
							"pm.test(\"Response Body\", function () {",
							"    var jsonData = pm.response.json();",
							"    pm.expect(jsonData.status).to.eql(404);",
							"    pm.expect(jsonData.error).to.eql(\"Not Found\");",
							"    pm.expect(jsonData.message).to.eql(\"No message available\");",
							"    pm.expect(jsonData.path).to.eql(\"/group/Sunday%20Runners/members\");",
							"});"
						],
						"type": "text/javascript"
					}
				}
			],
			"request": {
				"method": "POST",
				"header": [],
				"body": {
					"mode": "raw",
					"raw": "{\n\t\"email\" : \"joao@gmail.com\"\n}",
					"options": {
						"raw": {
							"language": "json"
						}
					}
				},
				"url": {
					"raw": "http://localhost:8080/group/Sunday Runners/members",
					"protocol": "http",
					"host": [
						"localhost"
					],
					"port": "8080",
					"path": [
						"group",
						"Sunday Runners",
						"members"
					]
				}
			},
			"response": []
		}
	],
	"event": [
		{
			"listen": "prerequest",
			"script": {
				"id": "cf21bf22-abd7-4386-8bed-b70c597a690b",
				"type": "text/javascript",
				"exec": [
					""
				]
			}
		},
		{
			"listen": "test",
			"script": {
				"id": "82c1d09e-5da3-4820-b63a-4ba915e6c13e",
				"type": "text/javascript",
				"exec": [
					""
				]
			}
		}
	],
	"protocolProfileBehavior": {}
}