{
	"info": {
		"_postman_id": "69c23d5d-76bf-46cc-8a6d-3dde109bcec9",
		"name": "Sprint 7 - US005_1CreateGroupCategory",
		"schema": "https://schema.getpostman.com/json/collection/v2.1.0/collection.json"
	},
	"item": [
		{
			"name": "createGroupCategory_Success (201 -> CREATED)",
			"event": [
				{
					"listen": "test",
					"script": {
						"id": "786bad81-9873-4fbe-ad1f-c2867a5092ed",
						"exec": [
							"    //Response Schema",
							"",
							"const schema = {",
							"    \"type\": \"object\",",
							"    ",
							"    \"properties\": {",
							"        ",
							"        \"denomination\": { \"type\" : \"string\"},",
							"        \"desciption\": { \"type\" : \"string\"},",
							"        \"dateOfCreation\": { \"type\" : \"string\"},",
							"        ",
							"        \"_links\":{",
							"            \"type\": \"object\",",
							"            ",
							"            \"properties\": {",
							"                \"admins\": {",
							"                    \"type\": \"object\",",
							"                    \"properties\": {",
							"                        \"href\": {\"type\": \"string\"},",
							"                    },",
							"                    \"required\": [\"href\"]",
							"                    ",
							"                },",
							"                \"members\": {",
							"                    \"type\": \"object\",",
							"                    \"properties\": {",
							"                        \"href\": {\"type\": \"string\"},",
							"                    },",
							"                    \"required\": [\"href\"]",
							"                    ",
							"                },",
							"                \"ledger\": {",
							"                    \"type\": \"object\",",
							"                    \"properties\": {",
							"                        \"href\": {\"type\": \"string\"},",
							"                    },",
							"                    \"required\": [\"href\"]",
							"                    ",
							"                },",
							"                \"accounts\": {",
							"                    \"type\": \"object\",",
							"                     \"properties\": {",
							"                        \"href\": {\"type\": \"string\"},",
							"                    },",
							"                    \"required\": [\"href\"]",
							"                    ",
							"                },",
							"                \"categories\": {",
							"                    \"type\": \"object\",",
							"                    \"properties\": {",
							"                        \"href\": {\"type\": \"string\"},",
							"                    },",
							"                    \"required\": [\"href\"]",
							"                    ",
							"                }",
							"            },",
							"            ",
							"            \"required\": [\"admins\", \"members\", \"ledger\", \"accounts\", \"categories\"] }",
							"            ",
							"    }, \"required\": [\"denomination\", \"_links\"]",
							"};",
							"",
							"    //Test Response Schema ",
							"",
							"pm.test('Schema is valid', () => {",
							"    ",
							"  pm.response.to.have.jsonSchema(schema);",
							"  ",
							"});",
							"",
							"",
							"    //Test Response Body",
							"",
							"pm.test(\"Response Body\", () => {",
							"    ",
							"  const moment = require('moment')",
							"  let dateNow = moment().format(\"YYYY-MM-DD\")",
							"  ",
							"  var jsonData = pm.response.json();",
							"  ",
							"  pm.expect(jsonData.denomination).to.eql(\"Fontes Family\");",
							"  pm.expect(jsonData.description).to.eql(\"All members from Fontes family\");",
							"  pm.expect(jsonData.dateOfCreation).to.eql(dateNow);",
							"  ",
							"});",
							""
						],
						"type": "text/javascript"
					}
				}
			],
			"request": {
				"method": "POST",
				"header": [],
				"body": {
					"mode": "raw",
					"raw": "{\n\t\"categoryDenomination\" : \"Allowance\"\n}",
					"options": {
						"raw": {
							"language": "json"
						}
					}
				},
				"url": {
					"raw": "localhost:8080/persons/manuel@gmail.com/groups/Fontes%20Family/categories",
					"host": [
						"localhost"
					],
					"port": "8080",
					"path": [
						"persons",
						"manuel@gmail.com",
						"groups",
						"Fontes%20Family",
						"categories"
					]
				}
			},
			"response": []
		},
		{
			"name": "createGroupCategory_PersonNotInCharge (422 -> UNPROCESSABLE_ENTITY)",
			"event": [
				{
					"listen": "test",
					"script": {
						"id": "85617f26-ead8-4385-b38b-a0e3c98c3f86",
						"exec": [
							"    //Response Schema",
							"    ",
							"const schema = {",
							"    ",
							"    \"type\": \"object\",",
							"    ",
							"    \"properties\": {",
							"        ",
							"        \"status\": { \"type\": \"string\" },",
							"        ",
							"        \"message\": { \"type\": \"string\" },",
							"        ",
							"        \"errors\": {",
							"            \"type\": \"array\",",
							"            \"minItems\": 1,",
							"            \"maxItems\": 1,",
							"            \"items\": {",
							"                \"type\": \"string\"",
							"            }",
							"        ",
							"    }}, \"required\": [\"status\", \"message\", \"errors\"]",
							"};",
							"",
							"    //Test Response Schema ",
							"",
							"pm.test(\"Validate schema\", () => {",
							"    ",
							"    pm.response.to.have.jsonSchema(schema);",
							"    ",
							"});",
							"",
							"",
							"    //Test Response Body",
							"",
							"pm.test(\"Response Body\", function () {",
							"    ",
							"    var jsonData = pm.response.json();",
							"    ",
							"    pm.expect(jsonData.status).to.eql(\"UNPROCESSABLE_ENTITY\");",
							"    pm.expect(jsonData.message).to.eql(\"Person is not in charge\");",
							"    pm.expect(jsonData.errors[0]).to.eql(\"Status Code: 422, Exception: InvalidArgumentsBusinessException\");",
							"    ",
							"});"
						],
						"type": "text/javascript"
					}
				}
			],
			"request": {
				"method": "POST",
				"header": [],
				"body": {
					"mode": "raw",
					"raw": "{\n\t\"personEmail\" : \"paulo@gmail.com\",\n\t\"groupDenomination\" : \"Fontes Family\",\n\t\"categoryDenomination\" : \"Allowance\"\n}",
					"options": {
						"raw": {
							"language": "json"
						}
					}
				},
				"url": {
					"raw": "localhost:8080/persons/paulo@gmail.com/groups/Fontes%20Family/categories",
					"host": [
						"localhost"
					],
					"port": "8080",
					"path": [
						"persons",
						"paulo@gmail.com",
						"groups",
						"Fontes%20Family",
						"categories"
					]
				}
			},
			"response": []
		},
		{
			"name": "createGroupCategory_CategoryAlreadyExists (422 -> UNPROCESSABLE_ENTITY)",
			"event": [
				{
					"listen": "test",
					"script": {
						"id": "ee7d1e24-7074-4159-83ae-cd2abb6afc47",
						"exec": [
							"    //Response Schema",
							"    ",
							"const schema = {",
							"    ",
							"    \"type\": \"object\",",
							"    ",
							"    \"properties\": {",
							"        ",
							"        \"status\": { \"type\": \"string\" },",
							"        ",
							"        \"message\": { \"type\": \"string\" },",
							"        ",
							"        \"errors\": {",
							"            \"type\": \"array\",",
							"            \"minItems\": 1,",
							"            \"maxItems\": 1,",
							"            \"items\": {",
							"                \"type\": \"string\"",
							"            }",
							"        ",
							"    }}, \"required\": [\"status\", \"message\", \"errors\"]",
							"};",
							"",
							"    //Test Response Schema ",
							"",
							"pm.test(\"Validate schema\", () => {",
							"    ",
							"    pm.response.to.have.jsonSchema(schema);",
							"    ",
							"});",
							"",
							"",
							"    //Test Response Body",
							"",
							"pm.test(\"Response Body\", function () {",
							"    ",
							"    var jsonData = pm.response.json();",
							"    ",
							"    pm.expect(jsonData.status).to.eql(\"UNPROCESSABLE_ENTITY\");",
							"    pm.expect(jsonData.message).to.eql(\"Category already exist\");",
							"    pm.expect(jsonData.errors[0]).to.eql(\"Status Code: 422, Exception: InvalidArgumentsBusinessException\");",
							"    ",
							"});"
						],
						"type": "text/javascript"
					}
				}
			],
			"request": {
				"method": "POST",
				"header": [],
				"body": {
					"mode": "raw",
					"raw": "{\n\t\"categoryDenomination\" : \"Salary\"\n}",
					"options": {
						"raw": {
							"language": "json"
						}
					}
				},
				"url": {
					"raw": "localhost:8080/persons/manuel@gmail.com/groups/Fontes%20Family/categories",
					"host": [
						"localhost"
					],
					"port": "8080",
					"path": [
						"persons",
						"manuel@gmail.com",
						"groups",
						"Fontes%20Family",
						"categories"
					]
				}
			},
			"response": []
		},
		{
			"name": "createGroupCategory_GroupDoesNotExists (404 -> NOT_FOUND)",
			"event": [
				{
					"listen": "test",
					"script": {
						"id": "be273d34-4d83-46c3-a3bc-8d302c0a2e4d",
						"exec": [
							"    //Response Schema",
							"",
							"const schema = {",
							"    ",
							"    \"type\": \"object\",",
							"    ",
							"    \"properties\": {",
							"        ",
							"        \"status\": { \"type\": \"string\" },",
							"        ",
							"        \"message\": { \"type\": \"string\" },",
							"        ",
							"        \"errors\": {",
							"            \"type\": \"array\",",
							"            \"minItems\": 1,",
							"            \"maxItems\": 1,",
							"            \"items\": {",
							"                \"type\": \"string\"",
							"            }",
							"        ",
							"    }}, \"required\": [\"status\", \"message\", \"errors\"]",
							"};",
							"",
							"    //Test Response Schema ",
							"",
							"pm.test(\"Validate schema\", () => {",
							"    ",
							"    pm.response.to.have.jsonSchema(schema);",
							"    ",
							"});",
							"",
							"",
							"    //Test Response Body",
							"",
							"pm.test(\"Response Body\", function () {",
							"    ",
							"    var jsonData = pm.response.json();",
							"    ",
							"    pm.expect(jsonData.status).to.eql(\"NOT_FOUND\");",
							"    pm.expect(jsonData.message).to.eql(\"Group does not exist\");",
							"    pm.expect(jsonData.errors[0]).to.eql(\"Status Code: 404, Exception: NotFoundArgumentsBusinessException\");",
							"    ",
							"});"
						],
						"type": "text/javascript"
					}
				}
			],
			"request": {
				"method": "POST",
				"header": [],
				"body": {
					"mode": "raw",
					"raw": "{\n\t\"categoryDenomination\" : \"Allowance\"\n}",
					"options": {
						"raw": {
							"language": "json"
						}
					}
				},
				"url": {
					"raw": "localhost:8080/persons/manuel@gmail.com/groups/Santos%20Family/categories",
					"host": [
						"localhost"
					],
					"port": "8080",
					"path": [
						"persons",
						"manuel@gmail.com",
						"groups",
						"Santos%20Family",
						"categories"
					]
				}
			},
			"response": []
		},
		{
			"name": "createGroupCategory -> 405 METHOD NOT ALLOWED (GET)",
			"event": [
				{
					"listen": "test",
					"script": {
						"id": "423c4199-3e41-4ce8-8a72-262642734e78",
						"exec": [
							"//Response Schema",
							"",
							"const schema = {",
							"    \"type\": \"object\",",
							"    \"properties\": {",
							"        \"status\": { \"type\": \"string\" },",
							"        \"message\": { \"type\": \"string\" },",
							"        \"errors\": {",
							"            \"type\": \"array\",",
							"            \"minItems\": 1,",
							"            \"maxItems\": 1,",
							"            \"items\": {",
							"                \"type\": \"string\"",
							"            }",
							"",
							"        }",
							"    }, \"required\": [\"status\", \"message\", \"errors\"]",
							"};",
							"",
							"",
							"//Test Response Schema ",
							"",
							"pm.test('Schema is valid', () => {",
							"",
							"    pm.response.to.have.jsonSchema(schema);",
							"",
							"});",
							"",
							"//Test Response Body",
							"",
							"pm.test(\"Response Body\", function () {",
							"    var jsonData = pm.response.json();",
							"    pm.expect(jsonData.status).to.eql(\"METHOD_NOT_ALLOWED\");",
							"    pm.expect(jsonData.message).to.eql(\"Request method 'GET' not supported\");",
							"",
							"    pm.expect(jsonData.errors[0]).to.eql(\"GET method is not supported for this request. Supported methods are POST \");",
							"});",
							""
						],
						"type": "text/javascript"
					}
				}
			],
			"protocolProfileBehavior": {
				"disableBodyPruning": true
			},
			"request": {
				"method": "GET",
				"header": [],
				"body": {
					"mode": "raw",
					"raw": "{\n\t\"categoryDenomination\" : \"Allowance\"\n}",
					"options": {
						"raw": {
							"language": "json"
						}
					}
				},
				"url": {
					"raw": "localhost:8080/persons/manuel@gmail.com/groups/Fontes%20Family/categories",
					"host": [
						"localhost"
					],
					"port": "8080",
					"path": [
						"persons",
						"manuel@gmail.com",
						"groups",
						"Fontes%20Family",
						"categories"
					]
				}
			},
			"response": []
		},
		{
			"name": "createGroupCategory -> 400 BAD REQUEST (JSON)",
			"event": [
				{
					"listen": "test",
					"script": {
						"id": "5076542d-7f21-4f2b-b81b-c3570685e3c1",
						"exec": [
							"//Response Schema",
							"",
							"const schema = {",
							"    \"type\": \"object\",",
							"    \"properties\": {",
							"        \"status\": { \"type\": \"string\" },",
							"        \"message\": { \"type\": \"string\" },",
							"        \"errors\": {",
							"            \"type\": \"array\",",
							"            \"minItems\": 1,",
							"            \"maxItems\": 1,",
							"            \"items\": {",
							"                \"type\": \"string\"",
							"            }",
							"",
							"        }",
							"    }, \"required\": [\"status\", \"message\", \"errors\"]",
							"};",
							"",
							"",
							"//Test Response Schema ",
							"",
							"pm.test('Schema is valid', () => {",
							"",
							"    pm.response.to.have.jsonSchema(schema);",
							"",
							"});",
							"",
							"//Test Response Body",
							"",
							"pm.test(\"Response Body\", function () {",
							"    var jsonData = pm.response.json();",
							"    pm.expect(jsonData.status).to.eql(\"BAD_REQUEST\");",
							"    pm.expect(jsonData.message).to.eql(\"Please verify the information sent.\");",
							"",
							"    pm.expect(jsonData.errors[0]).to.eql(\"Malformed JSON request - verify on line: 2, column: 37\");",
							"});",
							""
						],
						"type": "text/javascript"
					}
				}
			],
			"request": {
				"method": "POST",
				"header": [],
				"body": {
					"mode": "raw",
					"raw": "{\n\t\"categoryDenomination\" : Allowance\n}",
					"options": {
						"raw": {
							"language": "json"
						}
					}
				},
				"url": {
					"raw": "localhost:8080/persons/manuel@gmail.com/groups/Fontes%20Family/categories",
					"host": [
						"localhost"
					],
					"port": "8080",
					"path": [
						"persons",
						"manuel@gmail.com",
						"groups",
						"Fontes%20Family",
						"categories"
					]
				}
			},
			"response": []
		},
		{
			"name": "createGroupCategory -> 415 UNSUPPORTED MEDIA TYPE (XML)",
			"event": [
				{
					"listen": "test",
					"script": {
						"id": "13a44c21-1ee1-4f5c-a789-2ec788a8f657",
						"exec": [
							"//Response Schema",
							"",
							"const schema = {",
							"    \"type\": \"object\",",
							"    \"properties\": {",
							"        \"status\": { \"type\": \"string\" },",
							"        \"message\": { \"type\": \"string\" },",
							"        \"errors\": {",
							"            \"type\": \"array\",",
							"            \"minItems\": 1,",
							"            \"maxItems\": 1,",
							"            \"items\": {",
							"                \"type\": \"string\"",
							"            }",
							"",
							"        }",
							"    }, \"required\": [\"status\", \"message\", \"errors\"]",
							"};",
							"",
							"",
							"//Test Response Schema ",
							"",
							"pm.test('Schema is valid', () => {",
							"",
							"    pm.response.to.have.jsonSchema(schema);",
							"",
							"});",
							"",
							"//Test Response Body",
							"",
							"pm.test(\"Response Body\", function () {",
							"    var jsonData = pm.response.json();",
							"    pm.expect(jsonData.status).to.eql(\"UNSUPPORTED_MEDIA_TYPE\");",
							"    pm.expect(jsonData.message).to.eql(\"Content type 'application/xml;charset=UTF-8' not supported\");",
							"",
							"    pm.expect(jsonData.errors[0]).to.eql(\"application/xml;charset=UTF-8 media type is not supported. Supported media types are application/hal+json, application/json, application/octet-stream, application/xml, application/x-www-form-urlencoded, application/*+json, text/plain, text/xml, application/*+xml, multipart/form-data, multipart/mixed, */*\");",
							"});",
							""
						],
						"type": "text/javascript"
					}
				}
			],
			"request": {
				"method": "POST",
				"header": [],
				"body": {
					"mode": "raw",
					"raw": "{\n\t\"categoryDenomination\" : \"Allowance\"\n}",
					"options": {
						"raw": {
							"language": "xml"
						}
					}
				},
				"url": {
					"raw": "localhost:8080/persons/manuel@gmail.com/groups/Fontes%20Family/categories",
					"host": [
						"localhost"
					],
					"port": "8080",
					"path": [
						"persons",
						"manuel@gmail.com",
						"groups",
						"Fontes%20Family",
						"categories"
					]
				}
			},
			"response": []
		},
		{
			"name": "createGroupCategory -> 404 NOT FOUND (person)",
			"event": [
				{
					"listen": "test",
					"script": {
						"id": "7899c630-c492-4e45-abb7-8d8e723ef2a2",
						"exec": [
							"//Response Schema",
							"",
							"const schema = {",
							"    \"type\": \"object\",",
							"    \"properties\": {",
							"        \"timestamp\": { \"type\": \"string\" },",
							"        \"status\": { \"type\": \"number\" },",
							"        \"error\": { \"type\": \"string\" },",
							"        \"message\": { \"type\": \"string\" },",
							"        \"path\": { \"type\": \"string\" }",
							"",
							"    }, \"required\": [\"timestamp\", \"status\", \"error\", \"message\", \"path\"]",
							"};",
							"",
							"",
							"//Test Response Schema ",
							"",
							"pm.test('Schema is valid', () => {",
							"",
							"    pm.response.to.have.jsonSchema(schema);",
							"",
							"});",
							"",
							"//Test Response Body",
							"",
							"pm.test(\"Response Body\", function () {",
							"    var jsonData = pm.response.json();",
							"    pm.expect(jsonData.status).to.eql(404);",
							"    pm.expect(jsonData.error).to.eql(\"Not Found\");",
							"    pm.expect(jsonData.message).to.eql(\"No message available\");",
							"    pm.expect(jsonData.path).to.eql(\"/person/manuel@gmail.com/groups/Fontes%20Family/categories\");",
							"});",
							""
						],
						"type": "text/javascript"
					}
				}
			],
			"request": {
				"method": "POST",
				"header": [],
				"body": {
					"mode": "raw",
					"raw": "{\n\t\"categoryDenomination\" : \"Allowance\"\n}",
					"options": {
						"raw": {
							"language": "json"
						}
					}
				},
				"url": {
					"raw": "localhost:8080/person/manuel@gmail.com/groups/Fontes%20Family/categories",
					"host": [
						"localhost"
					],
					"port": "8080",
					"path": [
						"person",
						"manuel@gmail.com",
						"groups",
						"Fontes%20Family",
						"categories"
					]
				}
			},
			"response": []
		}
	],
	"event": [
		{
			"listen": "prerequest",
			"script": {
				"id": "223a3cae-7e28-4456-891c-3e68fdbe5a89",
				"type": "text/javascript",
				"exec": [
					""
				]
			}
		},
		{
			"listen": "test",
			"script": {
				"id": "3678eded-ab33-4fd3-9a2e-b4fff1e4f13c",
				"type": "text/javascript",
				"exec": [
					""
				]
			}
		}
	],
	"protocolProfileBehavior": {}
}